[gd_scene load_steps=4 format=2]

[ext_resource path="res://art/asteroids/large_asteroids/asteroide_1.png" type="Texture" id=1]
[ext_resource path="res://characters/asteroids/asteroid.gd" type="Script" id=2]

[sub_resource type="CircleShape2D" id=1]
radius = 45.0

[node name="Large_asteroid" type="Area2D"]
position = Vector2( 252, 132 )
script = ExtResource( 2 )
__meta__ = {
"_edit_group_": true
}

[node name="Sprite" type="Sprite" parent="."]
position = Vector2( 0, -9.53674e-07 )
scale = Vector2( 0.0927923, 0.0883338 )
texture = ExtResource( 1 )

[node name="CollisionShape2D" type="CollisionShape2D" parent="."]
position = Vector2( 1, 3 )
shape = SubResource( 1 )

[connection signal="area_entered" from="." to="." method="_on_Large_asteroid_area_entered"]
